Processor Execution Unit/EU/simulation/qsim/alu.msim.vcd
$comment
	File created using the following command:
		vcd file alu.msim.vcd -direction
$end
$date
	Sun Oct 23 21:42:44 2022
$end
$version
	ModelSim Version 2020.1
$end
$timescale
	1ps
$end

$scope module FinalBlock_vlg_vec_tst $end
$var reg 1 ! CLK $end
$var reg 6 " Operations [5:0] $end
$var reg 4 # Value [3:0] $end
$var wire 1 $ ALUO [3] $end
$var wire 1 % ALUO [2] $end
$var wire 1 & ALUO [1] $end
$var wire 1 ' ALUO [0] $end
$var wire 1 ( RFA [3] $end
$var wire 1 ) RFA [2] $end
$var wire 1 * RFA [1] $end
$var wire 1 + RFA [0] $end
$var wire 1 , RFB [3] $end
$var wire 1 - RFB [2] $end
$var wire 1 . RFB [1] $end
$var wire 1 / RFB [0] $end
$var wire 1 0 RFC [3] $end
$var wire 1 1 RFC [2] $end
$var wire 1 2 RFC [1] $end
$var wire 1 3 RFC [0] $end

$scope module i1 $end
$var wire 1 4 gnd $end
$var wire 1 5 vcc $end
$var wire 1 6 unknown $end
$var tri1 1 7 devclrn $end
$var tri1 1 8 devpor $end
$var tri1 1 9 devoe $end
$var wire 1 : ~QUARTUS_CREATED_GND~I_combout $end
$var wire 1 ; Operations[1]~input_o $end
$var wire 1 < Operations[0]~input_o $end
$var wire 1 = CLK~input_o $end
$var wire 1 > inst|inst1|inst9~combout $end
$var wire 1 ? inst|inst1|inst1|inst1|10~q $end
$var wire 1 @ inst|inst1|inst10~combout $end
$var wire 1 A inst|inst1|inst|inst1|10~q $end
$var wire 1 B inst|inst1|inst8~combout $end
$var wire 1 C inst|inst1|inst2|inst1|10~q $end
$var wire 1 D Value[3]~input_o $end
$var wire 1 E inst|inst1|inst12|inst7|6~0_combout $end
$var wire 1 F Operations[2]~input_o $end
$var wire 1 G Operations[3]~input_o $end
$var wire 1 H inst|inst1|inst5|inst7|6~0_combout $end
$var wire 1 I Operations[5]~input_o $end
$var wire 1 J Operations[4]~input_o $end
$var wire 1 K inst|inst1|inst1|inst1|9~q $end
$var wire 1 L Value[2]~input_o $end
$var wire 1 M inst|inst1|inst2|inst1|9~feeder_combout $end
$var wire 1 N inst|inst1|inst2|inst1|9~q $end
$var wire 1 O inst|inst1|inst12|inst10|6~0_combout $end
$var wire 1 P inst|inst1|inst|inst|10~q $end
$var wire 1 Q Value[1]~input_o $end
$var wire 1 R inst|inst1|inst2|inst|10~feeder_combout $end
$var wire 1 S inst|inst1|inst2|inst|10~q $end
$var wire 1 T inst|inst1|inst12|inst11|6~0_combout $end
$var wire 1 U inst|inst1|inst1|inst|9~q $end
$var wire 1 V Value[0]~input_o $end
$var wire 1 W inst|inst1|inst|inst|9~q $end
$var wire 1 X inst|inst1|inst12|inst12|6~0_combout $end
$var wire 1 Y inst|h|inst6|6~0_combout $end
$var wire 1 Z inst|inst1|inst2|inst|9~feeder_combout $end
$var wire 1 [ inst|inst1|inst2|inst|9~q $end
$var wire 1 \ inst|inst1|inst5|inst12|6~0_combout $end
$var wire 1 ] inst|h|inst7|6~combout $end
$var wire 1 ^ inst|inst1|inst1|inst|10~feeder_combout $end
$var wire 1 _ inst|inst1|inst1|inst|10~q $end
$var wire 1 ` inst|inst1|inst5|inst11|6~0_combout $end
$var wire 1 a inst|h|inst1|inst4~combout $end
$var wire 1 b inst|h|inst8|6~0_combout $end
$var wire 1 c inst|inst1|inst|inst1|9~q $end
$var wire 1 d inst|inst1|inst5|inst10|6~0_combout $end
$var wire 1 e inst|h|inst9|6~0_combout $end
$var wire 1 f inst|h|inst9|6~1_combout $end
$var wire 1 g inst|h|inst9|6~2_combout $end
$upscope $end
$upscope $end
$enddefinitions $end
#0
$dumpvars
0!
b1100 "
b1000 #
0'
0&
0%
1$
0+
0*
0)
0(
0/
0.
0-
0,
03
02
01
00
04
15
x6
17
18
19
0:
0;
0<
0=
0>
0?
0@
0A
0B
0C
1D
0E
1F
1G
1H
0I
0J
0K
0L
0M
0N
0O
0P
0Q
0R
0S
0T
0U
0V
0W
0X
0Y
0Z
0[
0\
0]
0^
0_
0`
0a
0b
0c
0d
0e
0f
1g
$end
#5000
1!
1=
1@
1A
1(
1E
#10000
0!
0=
0@
#15000
1!
1=
1@
#20000
b1101 "
b1001 #
0!
1V
1<
0=
0E
1\
0@
1Y
1'
1Z
#25000
1!
1=
1>
1U
1?
1,
1/
1E
1X
#30000
b1111 "
b1011 #
b1110 "
b1010 #
0!
0V
1Q
0<
1;
0=
0X
0E
1`
0\
0>
1]
0Y
0'
1&
0Z
1^
1R
#35000
1!
1=
1B
1S
1C
10
12
1E
1T
1a
#40000
b101110 "
b100110 "
b100010 "
b10 #
b100000 "
b0 #
b100001 "
b1 #
0!
1V
0Q
0D
1<
0;
0F
0G
1I
0=
0`
1X
0T
0B
0g
1b
0]
0&
1%
0$
0a
1Y
0^
0R
1M
1'
0b
1Z
0%
0M
#45000
1!
1=
1>
0?
0,
0E
1g
1$
#50000
b110001 "
b101 #
b110101 "
b1101 #
b110111 "
b110110 "
b1100 #
0!
0V
1L
1D
0<
1;
1F
1J
0=
1\
0H
0X
1T
1E
0>
0g
1b
1]
0Y
0'
1&
1%
0$
0]
0Z
1^
1R
1M
0&
0^
0R
#55000
1!
1=
1B
0S
1N
0C
00
11
02
0E
1O
0T
1]
0b
1g
1$
0%
1&
0M
1^
1R
#60000
b111110 "
b101110 "
b1000 #
0!
0L
1G
0J
0=
0\
1H
0B
0g
1b
0]
1Y
1'
0&
1%
0$
1g
0Y
1Z
0^
0R
1M
0'
1$
0Z
#65000
1!
1=
1B
1C
10
1E
0g
0$
#70000
b1010 #
b101100 "
b111100 "
0!
0;
1J
1Q
0=
1`
0O
0B
1g
0b
1]
1Y
1'
1&
0%
1$
1b
0]
1Z
1^
1R
0M
0&
1%
0^
0R
1M
#75000
1!
1=
1@
1c
1W
1+
1)
1X
1O
0b
0Y
0'
0%
0Z
0M
#80000
b11100 "
b11000 "
b11001 "
b10001 "
b1110 #
b1 "
0!
1L
1<
0F
0G
0J
0I
0=
1d
0`
1\
0O
0E
0@
1]
1&
1b
0]
1Y
1^
1R
1'
0&
1%
1Z
0^
0R
1M
#85000
1!
1=
1>
1K
1?
1,
1-
1E
1O
1e
#90000
b110 #
b111 #
b101 #
b11 "
b100011 "
b100111 "
b100110 "
b1 #
0!
0<
1;
1F
1I
1V
0Q
0L
0D
0=
0X
0>
0b
1]
0Y
0'
1&
0%
0]
1Y
0Z
1^
1R
0M
1'
0&
1Z
0^
0R
#95000
1!
1=
1B
1[
0N
01
13
0O
1X
0e
1]
0Y
1b
1%
0'
1&
0g
1M
0Z
1^
1R
0$
#100000
b11 #
b111 #
0!
1Q
1L
0=
0B
#105000
1!
1=
1B
0[
1S
1N
0C
00
11
12
03
0E
1O
1T
0X
1e
1Y
0b
1g
1$
0%
1'
0g
0M
1Z
0$
#110000
b1111 #
b100100 "
b100 "
b0 "
b1101 #
0!
0;
0F
0I
0Q
1D
0=
1E
0T
1X
0B
1g
1b
0]
0&
1%
1$
0^
0R
1M
#115000
1!
1=
1@
#120000
b1100 #
b1000 #
b0 #
b10 #
0!
0V
1Q
0L
0D
0=
0@
#125000
1!
1=
1@
#130000
b0 #
0!
0Q
0=
0@
#135000
1!
1=
1@
#140000
0!
0=
0@
#145000
1!
1=
1@
#150000
0!
0=
0@
#155000
1!
1=
1@
#160000
0!
0=
0@
#165000
1!
1=
1@
#170000
0!
0=
0@
#175000
1!
1=
1@
#180000
0!
0=
0@
#185000
1!
1=
1@
#190000
0!
0=
0@
#195000
1!
1=
1@
#200000
0!
0=
0@
#205000
1!
1=
1@
#210000
0!
0=
0@
#215000
1!
1=
1@
#220000
0!
0=
0@
#225000
1!
1=
1@
#230000
0!
0=
0@
#235000
1!
1=
1@
#240000
0!
0=
0@
#245000
1!
1=
1@
#250000
0!
0=
0@
#255000
1!
1=
1@
#260000
0!
0=
0@
#265000
1!
1=
1@
#270000
0!
0=
0@
#275000
1!
1=
1@
#280000
0!
0=
0@
#285000
1!
1=
1@
#290000
0!
0=
0@
#295000
1!
1=
1@
#300000
0!
0=
0@
#305000
1!
1=
1@
#310000
0!
0=
0@
#315000
1!
1=
1@
#320000
0!
0=
0@
#325000
1!
1=
1@
#330000
0!
0=
0@
#335000
1!
1=
1@
#340000
0!
0=
0@
#345000
1!
1=
1@
#350000
0!
0=
0@
#355000
1!
1=
1@
#360000
0!
0=
0@
#365000
1!
1=
1@
#370000
0!
0=
0@
#375000
1!
1=
1@
#380000
0!
0=
0@
#385000
1!
1=
1@
#390000
0!
0=
0@
#395000
1!
1=
1@
#400000
0!
0=
0@
#405000
1!
1=
1@
#410000
0!
0=
0@
#415000
1!
1=
1@
#420000
0!
0=
0@
#425000
1!
1=
1@
#430000
0!
0=
0@
#435000
1!
1=
1@
#440000
0!
0=
0@
#445000
1!
1=
1@
#450000
0!
0=
0@
#455000
1!
1=
1@
#460000
0!
0=
0@
#465000
1!
1=
1@
#470000
0!
0=
0@
#475000
1!
1=
1@
#480000
0!
0=
0@
#485000
1!
1=
1@
#490000
0!
0=
0@
#495000
1!
1=
1@
#500000
0!
0=
0@
#505000
1!
1=
1@
#510000
0!
0=
0@
#515000
1!
1=
1@
#520000
0!
0=
0@
#525000
1!
1=
1@
#530000
0!
0=
0@
#535000
1!
1=
1@
#540000
0!
0=
0@
#545000
1!
1=
1@
#550000
0!
0=
0@
#555000
1!
1=
1@
#560000
0!
0=
0@
#565000
1!
1=
1@
#570000
0!
0=
0@
#575000
1!
1=
1@
#580000
0!
0=
0@
#585000
1!
1=
1@
#590000
0!
0=
0@
#595000
1!
1=
1@
#600000
0!
0=
0@
#605000
1!
1=
1@
#610000
0!
0=
0@
#615000
1!
1=
1@
#620000
0!
0=
0@
#625000
1!
1=
1@
#630000
0!
0=
0@
#635000
1!
1=
1@
#640000
0!
0=
0@
#645000
1!
1=
1@
#650000
0!
0=
0@
#655000
1!
1=
1@
#660000
0!
0=
0@
#665000
1!
1=
1@
#670000
0!
0=
0@
#675000
1!
1=
1@
#680000
0!
0=
0@
#685000
1!
1=
1@
#690000
0!
0=
0@
#695000
1!
1=
1@
#700000
0!
0=
0@
#705000
1!
1=
1@
#710000
0!
0=
0@
#715000
1!
1=
1@
#720000
0!
0=
0@
#725000
1!
1=
1@
#730000
0!
0=
0@
#735000
1!
1=
1@
#740000
0!
0=
0@
#745000
1!
1=
1@
#750000
0!
0=
0@
#755000
1!
1=
1@
#760000
0!
0=
0@
#765000
1!
1=
1@
#770000
0!
0=
0@
#775000
1!
1=
1@
#780000
0!
0=
0@
#785000
1!
1=
1@
#790000
0!
0=
0@
#795000
1!
1=
1@
#800000
0!
0=
0@
#805000
1!
1=
1@
#810000
0!
0=
0@
#815000
1!
1=
1@
#820000
0!
0=
0@
#825000
1!
1=
1@
#830000
0!
0=
0@
#835000
1!
1=
1@
#840000
0!
0=
0@
#845000
1!
1=
1@
#850000
0!
0=
0@
#855000
1!
1=
1@
#860000
0!
0=
0@
#865000
1!
1=
1@
#870000
0!
0=
0@
#875000
1!
1=
1@
#880000
0!
0=
0@
#885000
1!
1=
1@
#890000
0!
0=
0@
#895000
1!
1=
1@
#900000
0!
0=
0@
#905000
1!
1=
1@
#910000
0!
0=
0@
#915000
1!
1=
1@
#920000
0!
0=
0@
#925000
1!
1=
1@
#930000
0!
0=
0@
#935000
1!
1=
1@
#940000
0!
0=
0@
#945000
1!
1=
1@
#950000
0!
0=
0@
#955000
1!
1=
1@
#960000
0!
0=
0@
#965000
1!
1=
1@
#970000
0!
0=
0@
#975000
1!
1=
1@
#980000
0!
0=
0@
#985000
1!
1=
1@
#990000
0!
0=
0@
#995000
1!
1=
1@
